…
- On Windows, paths are written using backslashes ( `\` ) as the separator between folder names: `"data\raw-data\file.csv"` 
- On Unix based operating system such as macOS or Linux the forward slash ( `/` ) is used as the path separator: `"data/raw-data/file.csv"`

The `{here}` package adds one more layer of reproducibility to your work. For more, read this tutorial about [open, sustainable, and reproducible epidemic analysis with R](https://epiverse-trace.github.io/research-compendium/)

::::::::::::::::::::


``` r
# Print line list data
cases
```

``` output
# A tibble: 166 × 11
   case_id generation date_of_infection date_of_onset date_of_hospitalisation
   <chr>        <dbl> <date>            <date>        <date>                 
 1 d1fafd           0 NA                2014-04-07    2014-04-17             
 2 53371b           1 2014-04-09        2014-04-15    2014-04-20             
 3 f5c3d8           1 2014-04-18        2014-04-21    2014-04-25             
 4 e66fa4           2 NA                2014-04-21    2014-05-06             
 5 49731d           0 2014-03-19        2014-04-25    2014-05-02             
 6 0f58c4           2 2014-04-22        2014-04-26    2014-04-29             
 7 6c286a           2 NA                2014-04-27    2014-04-27             
 8 881bd4           3 2014-04-26        2014-05-01    2014-05-05             
 9 d58402           2 2014-04-23        2014-05-01    2014-05-10             
10 f9149b           3 NA                2014-05-03    2014-05-04             
# ℹ 156 more rows
# ℹ 6 more variables: date_of_outcome <date>, outcome <chr>, gender <chr>,
#   hospital <chr>, lon <dbl>, lat <dbl>
```
…
